--env
python -m venv envtry                         ----------------------create env 
E:\env\django_02/Scripts/activate.bat               -------------env active
deactivate                                                  -----------------out env

--django
python manage.py makemigrations                         ------- database create new
python manage.py migrate                                    -------  database renew
python manage.py createsuperuser                   ------------createsuperuser
django-admin startproject  
objects = models.Manager()

--python pip
pip install django
pip install ipython
pip install djangorestframework
pip install django-rest-swagger 
--ubuntu
sudo apt-get install python-pip
--Fedora
yum install python-pip
--database
comend.objects.create(cName='song1', cmmd='SKE48')

--git
--upload
git config --global user.name "tan Joe YIin"
git config --global user.email "ojo880306@gmail.com"
git init
git remote add origin https://gitlab.com/ojo880306/framewor-music.git
git add .